README
…
Convert flowSet to tidy data format

Now that the initial gating has been applied, to limit the data to measurements oflive, singlet lymphocyte cells, we convert the data to a tidy data format, to allow us to work with tidyverse tools for further analysis and visualization.

Apply this function to the flowSet of gated FMO data:

FMO_gated_data <- tidy_flow_set(flowset_FMO_gated_data)
FMO_gated_data

## # A tibble: 417,910 x 49
##    filename  Time `SSC-H` `SSC-A` `FSC-H` `FSC-A` `BV421-H` `Pacific Blue-H`
##    <chr>    <dbl>   <dbl>   <dbl>   <dbl>   <dbl>     <dbl>            <dbl>
##  1 CD103.f   130  105692  1.26e5  354442  6.45e5     -58.8             295.
##  2 CD103.f   137  270246  3.16e5 1094791  1.59e6   -6837.              181.
##  3 CD103.f   139  326197  3.77e5 1312044  1.80e6   -6375.             2438.
##  4 CD103.f   149   74523  8.52e4  295947  5.57e5     285.              542.
##  5 CD103.f   159  103797  1.10e5  293302  4.86e5    -419.              250.
##  6 CD103.f   215  188622  2.20e5  355468  5.51e5    -589.             1265.
##  7 CD103.f   233  275485  3.18e5 1264605  1.57e6   -3984.              770.
##  8 CD103.f   242  262851  3.03e5  931615  1.20e6   -5463.             -680.
##  9 CD103.f   501  205731  3.60e5  578193  6.76e5    -782.              865.
## 10 CD103.f   590 1510416  2.11e6 1396843  1.87e6  -56700.              192.
## #  with 417,900 more rows, and 41 more variables: `BV480-H` <dbl>,
## #   `BV510-H` <dbl>, `BV570-H` <dbl>, `BV605-H` <dbl>, `BV650-H` <dbl>,
## #   `BV711-H` <dbl>, `BV785-H` <dbl>, `BB515-H` <dbl>, `Alexa Fluor
## #   532-H` <dbl>, `PE-H` <dbl>, `PE-Dazzle594-H` <dbl>, `PE-Cy5-H` <dbl>,
## #   `PE-Cy5.5-H` <dbl>, `PerCP-eFluor 710-H` <dbl>, `PE-Cy7-H` <dbl>,
## #   `APC-H` <dbl>, `APC-R700-H` <dbl>, `APC-Fire 750-H` <dbl>, `AF-H` <dbl>,
## #   `BV421-A` <dbl>, `Pacific Blue-A` <dbl>, `BV480-A` <dbl>, `BV510-A` <dbl>,
## #   `BV570-A` <dbl>, `BV605-A` <dbl>, `BV650-A` <dbl>, `BV711-A` <dbl>,
## #   `BV785-A` <dbl>, `BB515-A` <dbl>, `Alexa Fluor 532-A` <dbl>, `PE-A` <dbl>,
…
values_for_plot <- fitted_models %>%
  mutate(p.val.adj = p.adjust(p.value, method = "BH", 
                              n = length(fitted_models$p.value))) 

values_for_plot %>%
  mutate("Significance" = p.val.adj < 0.05) %>%
  rename("p-value" = p.value,
         "Adjusted p-value" = p.val.adj) 

## # A tibble: 33 x 6
##      pop adj.r.squared `p-value` estimate `Adjusted p-value` Significance
##    <dbl>         <dbl>     <dbl>    <dbl>              <dbl> <lgl>       
##  1     1        0.624  0.0000581  -0.850            0.000479 TRUE        
##  2    10        0.263  0.0172     -0.121            0.0316   TRUE        
##  3    11        0.525  0.000402   -0.139            0.00189  TRUE        
##  4    12        0.135  0.0738     -0.0791           0.0962   FALSE       
##  5    13       -0.0474 0.638      -0.0227           0.658    FALSE       
##  6    14        0.220  0.0284     -0.291            0.0407   TRUE        
##  7    15        0.499  0.000627    0.489            0.00259  TRUE        
##  8    16        0.113  0.0937     -0.139            0.115    FALSE       
##  9    17        0.466  0.00107    -0.109            0.00394  TRUE        
## 10    18        0.318  0.00868    -0.0791           0.0179   TRUE        
## #  with 23 more rows
…
