…
``` r
# Pull out the data from the 'live' node of the gating set (the last node
# in the initial gating strategy).
FMO_gated_data <- gs_pop_get_data(gs_FMO, "live") %>% 
  as.flowSet() 
```

Apply this function to the ‘flowSet’ of gated FMO data:

``` r
FMO_gated_data <- tidy_flow_set(FMO_gated_data)
FMO_gated_data
#> # A tibble: 417,910 x 49
#>    filename  Time `SSC-H` `SSC-A` `FSC-H` `FSC-A` `BV421-H` `Pacific Blue-H`
#>    <chr>    <dbl>   <dbl>   <dbl>   <dbl>   <dbl>     <dbl>            <dbl>
#>  1 CD103      130  105692  1.26e5  354442  6.45e5     -58.8             295.
#>  2 CD103      137  270246  3.16e5 1094791  1.59e6   -6837.              181.
#>  3 CD103      139  326197  3.77e5 1312044  1.80e6   -6375.             2438.
#>  4 CD103      149   74523  8.52e4  295947  5.57e5     285.              542.
#>  5 CD103      159  103797  1.10e5  293302  4.86e5    -419.              250.
#>  6 CD103      215  188622  2.20e5  355468  5.51e5    -589.             1265.
#>  7 CD103      233  275485  3.18e5 1264605  1.57e6   -3984.              770.
#>  8 CD103      242  262851  3.03e5  931615  1.20e6   -5463.             -680.
#>  9 CD103      501  205731  3.60e5  578193  6.76e5    -782.              865.
#> 10 CD103      590 1510416  2.11e6 1396843  1.87e6  -56700.              192.
#> # … with 417,900 more rows, and 41 more variables: `BV480-H` <dbl>,
#> #   `BV510-H` <dbl>, `BV570-H` <dbl>, `BV605-H` <dbl>, `BV650-H` <dbl>,
#> #   `BV711-H` <dbl>, `BV785-H` <dbl>, `BB515-H` <dbl>, `Alexa Fluor
#> #   532-H` <dbl>, `PE-H` <dbl>, `PE-Dazzle594-H` <dbl>, `PE-Cy5-H` <dbl>,
#> #   `PE-Cy5.5-H` <dbl>, `PerCP-eFluor 710-H` <dbl>, `PE-Cy7-H` <dbl>,
#> #   `APC-H` <dbl>, `APC-R700-H` <dbl>, `APC-Fire 750-H` <dbl>, `AF-H` <dbl>,
#> #   `BV421-A` <dbl>, `Pacific Blue-A` <dbl>, `BV480-A` <dbl>, `BV510-A` <dbl>,
#> #   `BV570-A` <dbl>, `BV605-A` <dbl>, `BV650-A` <dbl>, `BV711-A` <dbl>,
#> #   `BV785-A` <dbl>, `BB515-A` <dbl>, `Alexa Fluor 532-A` <dbl>, `PE-A` <dbl>,
…
